…
``` r
## NOTE: No need to edit! We'll cover how to
## do this calculation in a later exercise.
df_prop <-
  df_titanic %>%
  group_by(Class, Sex, Age) %>%
  mutate(
    Total = sum(n),
    Prop = n / Total
  ) %>%
  ungroup()
df_prop
```

    ## # A tibble: 32 × 7
    ##    Class Sex    Age   Survived     n Total    Prop
    ##    <chr> <chr>  <chr> <chr>    <dbl> <dbl>   <dbl>
    ##  1 1st   Male   Child No           0     5   0    
    ##  2 2nd   Male   Child No           0    11   0    
    ##  3 3rd   Male   Child No          35    48   0.729
    ##  4 Crew  Male   Child No           0     0 NaN    
    ##  5 1st   Female Child No           0     1   0    
    ##  6 2nd   Female Child No           0    13   0    
    ##  7 3rd   Female Child No          17    31   0.548
    ##  8 Crew  Female Child No           0     0 NaN    
    ##  9 1st   Male   Adult No         118   175   0.674
    ## 10 2nd   Male   Adult No         154   168   0.917
    ## # ℹ 22 more rows
…
library(ggplot2)
library(tidyverse)
library(dplyr)
df_prop <-
  df_titanic %>%
  group_by(Class, Sex) %>%
  mutate(
    Total = sum(n),
    Prop = n / Total
  ) %>%
  ungroup()
df_prop
```

    ## # A tibble: 32 × 7
    ##    Class Sex    Age   Survived     n Total   Prop
    ##    <chr> <chr>  <chr> <chr>    <dbl> <dbl>  <dbl>
    ##  1 1st   Male   Child No           0   180 0     
    ##  2 2nd   Male   Child No           0   179 0     
    ##  3 3rd   Male   Child No          35   510 0.0686
    ##  4 Crew  Male   Child No           0   862 0     
    ##  5 1st   Female Child No           0   145 0     
    ##  6 2nd   Female Child No           0   106 0     
    ##  7 3rd   Female Child No          17   196 0.0867
    ##  8 Crew  Female Child No           0    23 0     
    ##  9 1st   Male   Adult No         118   180 0.656 
    ## 10 2nd   Male   Adult No         154   179 0.860 
    ## # ℹ 22 more rows
…
library(ggplot2)
library(tidyverse)
library(dplyr)
df_prop <-
  df_titanic %>%
  group_by(Class, Sex,Age) %>%
  mutate(
    Total = sum(n),
    Prop = n / Total
  ) %>%
  ungroup()
df_prop
```

    ## # A tibble: 32 × 7
    ##    Class Sex    Age   Survived     n Total    Prop
    ##    <chr> <chr>  <chr> <chr>    <dbl> <dbl>   <dbl>
    ##  1 1st   Male   Child No           0     5   0    
    ##  2 2nd   Male   Child No           0    11   0    
    ##  3 3rd   Male   Child No          35    48   0.729
    ##  4 Crew  Male   Child No           0     0 NaN    
    ##  5 1st   Female Child No           0     1   0    
    ##  6 2nd   Female Child No           0    13   0    
    ##  7 3rd   Female Child No          17    31   0.548
    ##  8 Crew  Female Child No           0     0 NaN    
    ##  9 1st   Male   Adult No         118   175   0.674
    ## 10 2nd   Male   Adult No         154   168   0.917
    ## # ℹ 22 more rows
…
